<?xml version="1.0" encoding="UTF-8" standalone="no"?>
<!-- Created with Inkscape (http://www.inkscape.org/) -->

<svg
   xmlns:dc="http://purl.org/dc/elements/1.1/"
   xmlns:cc="http://creativecommons.org/ns#"
   xmlns:rdf="http://www.w3.org/1999/02/22-rdf-syntax-ns#"
   xmlns:svg="http://www.w3.org/2000/svg"
   xmlns="http://www.w3.org/2000/svg"
   xmlns:sodipodi="http://sodipodi.sourceforge.net/DTD/sodipodi-0.dtd"
   xmlns:inkscape="http://www.inkscape.org/namespaces/inkscape"
   width="744.09448819"
   height="1052.3622047"
   id="svg2"
   version="1.1"
   inkscape:version="0.48.4 r9939"
   sodipodi:docname="OM-Process.svg">
  <defs
     id="defs4" />
  <sodipodi:namedview
     id="base"
     pagecolor="#ffffff"
     bordercolor="#666666"
     borderopacity="1.0"
     inkscape:pageopacity="0.0"
     inkscape:pageshadow="2"
     inkscape:zoom="1.979899"
     inkscape:cx="372.58099"
     inkscape:cy="601.89724"
     inkscape:document-units="px"
     inkscape:current-layer="layer1"
     showgrid="true"
     inkscape:window-width="1668"
     inkscape:window-height="1172"
     inkscape:window-x="83"
     inkscape:window-y="0"
     inkscape:window-maximized="0">
    <inkscape:grid
       type="xygrid"
       id="grid4453" />
  </sodipodi:namedview>
  <metadata
     id="metadata7">
    <rdf:RDF>
      <cc:Work
         rdf:about="">
        <dc:format>image/svg+xml</dc:format>
        <dc:type
           rdf:resource="http://purl.org/dc/dcmitype/StillImage" />
        <dc:title />
      </cc:Work>
    </rdf:RDF>
  </metadata>
  <g
     inkscape:label="Layer 1"
     inkscape:groupmode="layer"
     id="layer1">
    <g
       id="g4535"
       transform="translate(-24.803143,1.7301304e-5)">
      <g
         transform="matrix(0.79140252,0,0,1,40.839069,0.17857143)"
         id="g4465">
        <rect
           x="194.36475"
           y="612.71802"
           width="112.40446"
           height="35.112442"
           rx="0"
           style="fill:none;stroke:#000000;stroke-width:0.66897565;stroke-linecap:butt;stroke-linejoin:miter"
           id="rect3008" />
        <rect
           x="194.36475"
           y="591.66547"
           width="112.40446"
           height="21.052588"
           rx="0"
           style="fill:none;stroke:#000000;stroke-width:0.66897565;stroke-linecap:butt;stroke-linejoin:miter"
           id="rect3010" />
        <rect
           x="194.36475"
           y="570.53845"
           width="112.40446"
           height="21.052588"
           rx="0"
           style="fill:none;stroke:#000000;stroke-width:0.66897565;stroke-linecap:butt;stroke-linejoin:miter"
           id="rect3012" />
      </g>
      <text
         id="text3014"
         font-size="126"
         font-weight="normal"
         font-style="normal"
         y="627.16534"
         x="201.96851"
         xml:space="preserve"
         style="font-size:9.37323666px;font-style:normal;font-weight:normal;text-anchor:start;fill:#000000;stroke-width:0.025in;font-family:Helvetica">Refer to</text>
      <text
         id="text3016"
         font-size="126"
         font-weight="normal"
         font-style="normal"
         y="637.79523"
         x="201.96851"
         xml:space="preserve"
         style="font-size:9.37323666px;font-style:normal;font-weight:normal;text-anchor:start;fill:#000000;stroke-width:0.025in;font-family:Helvetica">PrcGNetList.hpp</text>
      <text
         id="text3018"
         font-size="126"
         font-weight="normal"
         font-style="normal"
         y="584.64563"
         x="212.59842"
         xml:space="preserve"
         style="font-size:9.37323666px;font-style:normal;font-weight:normal;text-anchor:start;fill:#000000;stroke-width:0.025in;font-family:Helvetica">PrcGNetList</text>
    </g>
    <g
       id="g4508"
       transform="translate(-49.606284,1.7301304e-5)">
      <g
         transform="matrix(0.76386225,0,0,1,79.252435,0.25253814)"
         id="g4470">
        <rect
           x="327.89618"
           y="612.71802"
           width="115.97521"
           height="35.112442"
           rx="0"
           style="fill:none;stroke:#000000;stroke-width:0.68092847;stroke-linecap:butt;stroke-linejoin:miter"
           id="rect3020" />
        <rect
           x="327.89618"
           y="591.66547"
           width="115.97521"
           height="21.052588"
           rx="0"
           style="fill:none;stroke:#000000;stroke-width:0.68092847;stroke-linecap:butt;stroke-linejoin:miter"
           id="rect3022" />
        <rect
           x="327.89618"
           y="570.53845"
           width="115.97521"
           height="21.052588"
           rx="0"
           style="fill:none;stroke:#000000;stroke-width:0.68092847;stroke-linecap:butt;stroke-linejoin:miter"
           id="rect3024" />
      </g>
      <text
         id="text3026"
         font-size="126"
         font-weight="normal"
         font-style="normal"
         y="627.16534"
         x="336.61417"
         xml:space="preserve"
         style="font-size:9.37323666px;font-style:normal;font-weight:normal;text-anchor:start;fill:#000000;stroke-width:0.025in;font-family:Helvetica">Refer to</text>
      <text
         id="text3028"
         font-size="126"
         font-weight="normal"
         font-style="normal"
         y="637.79523"
         x="336.61417"
         xml:space="preserve"
         style="font-size:9.37323666px;font-style:normal;font-weight:normal;text-anchor:start;fill:#000000;stroke-width:0.025in;font-family:Helvetica">PrcSimrBase.hpp</text>
      <text
         id="text3030"
         font-size="126"
         font-weight="normal"
         font-style="normal"
         y="584.64563"
         x="347.24408"
         xml:space="preserve"
         style="font-size:9.37323666px;font-style:normal;font-weight:normal;text-anchor:start;fill:#000000;stroke-width:0.025in;font-family:Helvetica">PrcSimrBase</text>
    </g>
    <polyline
       points="3637,5952 3637,5716 "
       style="fill:none;stroke:#000000;stroke-width:8;stroke-linecap:butt;stroke-linejoin:miter"
       id="polyline3032"
       transform="matrix(0.07439077,0,0,0.07439077,53.545755,240.74854)" />
    <polyline
       points="3637,5480 3779,5716 3496,5716 3637,5480 "
       style="fill:none;stroke:#000000;stroke-width:8;stroke-linecap:butt;stroke-linejoin:miter"
       id="polyline3034"
       transform="matrix(0.07439077,0,0,0.07439077,53.545755,240.496)" />
    <polyline
       points="3590,2692 3590,2456 "
       style="fill:none;stroke:#000000;stroke-width:8;stroke-linecap:butt;stroke-linejoin:miter"
       id="polyline3036"
       transform="matrix(0.07439077,0,0,0.07439077,113.85845,238.81487)" />
    <polyline
       points="3590,2220 3732,2456 3448,2456 3590,2220 "
       style="fill:none;stroke:#000000;stroke-width:8;stroke-linecap:butt;stroke-linejoin:miter"
       id="polyline3038"
       transform="matrix(0.07439077,0,0,0.07439077,113.85845,238.81487)" />
    <g
       id="g4499"
       transform="translate(-5.0462137e-6,1.1053611e-5)">
      <g
         transform="matrix(0.96978782,0,0,1,8.3225803,-1.2626907)"
         id="g4460">
        <rect
           x="338.45969"
           y="482.68295"
           width="91.351868"
           height="35.112442"
           rx="0"
           style="fill:none;stroke:#000000;stroke-width:0.60432518;stroke-linecap:butt;stroke-linejoin:miter"
           id="rect3040" />
        <rect
           x="338.45969"
           y="461.63037"
           width="91.351868"
           height="21.052588"
           rx="0"
           style="fill:none;stroke:#000000;stroke-width:0.60432518;stroke-linecap:butt;stroke-linejoin:miter"
           id="rect3042" />
        <rect
           x="338.45969"
           y="440.50339"
           width="91.351868"
           height="21.052588"
           rx="0"
           style="fill:none;stroke:#000000;stroke-width:0.60432518;stroke-linecap:butt;stroke-linejoin:miter"
           id="rect3044" />
      </g>
      <text
         id="text3046"
         font-size="126"
         font-weight="normal"
         font-style="normal"
         y="496.06296"
         x="343.70078"
         xml:space="preserve"
         style="font-size:9.37323666px;font-style:normal;font-weight:normal;text-anchor:start;fill:#000000;stroke-width:0.025in;font-family:Helvetica">Refer to</text>
      <text
         id="text3048"
         font-size="126"
         font-weight="normal"
         font-style="normal"
         y="506.6929"
         x="343.70078"
         xml:space="preserve"
         style="font-size:9.37323666px;font-style:normal;font-weight:normal;text-anchor:start;fill:#000000;stroke-width:0.025in;font-family:Helvetica">PrcBase.hpp</text>
      <text
         id="text3050"
         font-size="126"
         font-weight="normal"
         font-style="normal"
         y="453.54327"
         x="361.41733"
         xml:space="preserve"
         style="font-size:9.37323666px;font-style:normal;font-weight:normal;text-anchor:start;fill:#000000;stroke-width:0.025in;font-family:Helvetica">PrcBase</text>
    </g>
    <g
       id="g4490">
      <g
         transform="matrix(0.90253806,0,0,1,34.402887,-1.7857143)"
         id="g4455">
        <rect
           x="334.96332"
           y="370.2785"
           width="98.344597"
           height="35.112442"
           rx="0"
           style="fill:none;stroke:#000000;stroke-width:0.6264354;stroke-linecap:butt;stroke-linejoin:miter"
           id="rect3052" />
        <rect
           x="334.96332"
           y="349.15152"
           width="98.344597"
           height="21.052588"
           rx="0"
           style="fill:none;stroke:#000000;stroke-width:0.6264354;stroke-linecap:butt;stroke-linejoin:miter"
           id="rect3054" />
        <rect
           x="334.96332"
           y="328.09894"
           width="98.344597"
           height="21.052588"
           rx="0"
           style="fill:none;stroke:#000000;stroke-width:0.6264354;stroke-linecap:butt;stroke-linejoin:miter"
           id="rect3056" />
      </g>
      <text
         id="text3058"
         font-size="126"
         font-weight="normal"
         font-style="normal"
         y="382.67715"
         x="343.70078"
         xml:space="preserve"
         style="font-size:9.37323666px;font-style:normal;font-weight:normal;text-anchor:start;fill:#000000;stroke-width:0.025in;font-family:Helvetica">Refer to</text>
      <text
         id="text3060"
         font-size="126"
         font-weight="normal"
         font-style="normal"
         y="393.30707"
         x="343.70078"
         xml:space="preserve"
         style="font-size:9.37323666px;font-style:normal;font-weight:normal;text-anchor:start;fill:#000000;stroke-width:0.025in;font-family:Helvetica">wxWidgets lib.</text>
      <text
         id="text3062"
         font-size="126"
         font-weight="normal"
         font-style="normal"
         y="340.15747"
         x="357.87402"
         xml:space="preserve"
         style="font-size:9.37323666px;font-style:normal;font-weight:normal;text-anchor:start;fill:#000000;stroke-width:0.025in;font-family:Helvetica">wxProcess</text>
    </g>
    <polyline
       points="3590,4440 3590,3968 "
       style="fill:none;stroke:#000000;stroke-width:10.98976135;stroke-linecap:butt;stroke-linejoin:miter"
       id="polyline3064"
       transform="matrix(0.07439077,0,0,0.03942053,113.85845,377.79403)" />
    <polyline
       points="3590,3732 3732,3968 3448,3968 3590,3732 "
       style="fill:none;stroke:#000000;stroke-width:8;stroke-linecap:butt;stroke-linejoin:miter"
       id="polyline3066"
       transform="matrix(0.07439077,0,0,0.07439077,113.85845,239.17201)" />
    <g
       id="g4558"
       transform="translate(-42.51968,1.7301304e-5)">
      <g
         transform="matrix(0.89892836,0,0,1,18.085898,1.7301304e-5)"
         id="g4475">
        <rect
           x="464.99838"
           y="612.71802"
           width="98.344597"
           height="35.112442"
           rx="0"
           style="fill:none;stroke:#000000;stroke-width:0.62769186;stroke-linecap:butt;stroke-linejoin:miter"
           id="rect3068" />
        <rect
           x="464.99838"
           y="591.66547"
           width="98.344597"
           height="21.052588"
           rx="0"
           style="fill:none;stroke:#000000;stroke-width:0.62769186;stroke-linecap:butt;stroke-linejoin:miter"
           id="rect3070" />
        <rect
           x="464.99838"
           y="570.53845"
           width="98.344597"
           height="21.052588"
           rx="0"
           style="fill:none;stroke:#000000;stroke-width:0.62769186;stroke-linecap:butt;stroke-linejoin:miter"
           id="rect3072" />
      </g>
      <text
         id="text3074"
         font-size="126"
         font-weight="normal"
         font-style="normal"
         y="627.16534"
         x="442.91339"
         xml:space="preserve"
         style="font-size:9.37323666px;font-style:normal;font-weight:normal;text-anchor:start;fill:#000000;stroke-width:0.025in;font-family:Helvetica">Refer to</text>
      <text
         id="text3076"
         font-size="126"
         font-weight="normal"
         font-style="normal"
         y="637.79523"
         x="442.91339"
         xml:space="preserve"
         style="font-size:9.37323666px;font-style:normal;font-weight:normal;text-anchor:start;fill:#000000;stroke-width:0.025in;font-family:Helvetica">PrcGwave.hpp</text>
      <text
         id="text3078"
         font-size="126"
         font-weight="normal"
         font-style="normal"
         y="584.64563"
         x="457.08661"
         xml:space="preserve"
         style="font-size:9.37323666px;font-style:normal;font-weight:normal;text-anchor:start;fill:#000000;stroke-width:0.025in;font-family:Helvetica">PrcGwave</text>
    </g>
    <g
       id="g4517"
       transform="translate(-63.779523,2.3548997e-5)">
      <g
         transform="matrix(0.78995807,0,0,1,82.184316,1.1364216)"
         id="g4485">
        <rect
           x="398.19547"
           y="700.57355"
           width="112.40446"
           height="21.052588"
           rx="0"
           style="fill:none;stroke:#000000;stroke-width:0.66958702;stroke-linecap:butt;stroke-linejoin:miter"
           id="rect3080" />
        <rect
           x="398.19547"
           y="721.7005"
           width="112.40446"
           height="21.052588"
           rx="0"
           style="fill:none;stroke:#000000;stroke-width:0.66958702;stroke-linecap:butt;stroke-linejoin:miter"
           id="rect3082" />
        <rect
           x="398.19547"
           y="742.75311"
           width="112.40446"
           height="35.112442"
           rx="0"
           style="fill:none;stroke:#000000;stroke-width:0.66958702;stroke-linecap:butt;stroke-linejoin:miter"
           id="rect3084" />
      </g>
      <text
         id="text3086"
         font-size="126"
         font-weight="normal"
         font-style="normal"
         y="758.2677"
         x="403.93701"
         xml:space="preserve"
         style="font-size:9.37323666px;font-style:normal;font-weight:normal;text-anchor:start;fill:#000000;stroke-width:0.025in;font-family:Helvetica">Refer to</text>
      <text
         id="text3088"
         font-size="126"
         font-weight="normal"
         font-style="normal"
         y="768.89764"
         x="403.93701"
         xml:space="preserve"
         style="font-size:9.37323666px;font-style:normal;font-weight:normal;text-anchor:start;fill:#000000;stroke-width:0.025in;font-family:Helvetica">PrcNgSpice.hpp</text>
      <text
         id="text3090"
         font-size="126"
         font-weight="normal"
         font-style="normal"
         y="715.74799"
         x="414.56693"
         xml:space="preserve"
         style="font-size:9.37323666px;font-style:normal;font-weight:normal;text-anchor:start;fill:#000000;stroke-width:0.025in;font-family:Helvetica">PrcNgSpice</text>
    </g>
    <g
       id="g4526"
       transform="translate(-46.062992,2.3548997e-5)">
      <g
         transform="matrix(0.81204334,0,0,1,51.609294,1.0101525)"
         id="g4480">
        <rect
           x="268.1604"
           y="700.57355"
           width="108.90809"
           height="21.052588"
           rx="0"
           style="fill:none;stroke:#000000;stroke-width:0.66041881;stroke-linecap:butt;stroke-linejoin:miter"
           id="rect3092" />
        <rect
           x="268.1604"
           y="721.7005"
           width="108.90809"
           height="21.052588"
           rx="0"
           style="fill:none;stroke:#000000;stroke-width:0.66041881;stroke-linecap:butt;stroke-linejoin:miter"
           id="rect3094" />
        <rect
           x="268.1604"
           y="742.75311"
           width="108.90809"
           height="35.112442"
           rx="0"
           style="fill:none;stroke:#000000;stroke-width:0.66041881;stroke-linecap:butt;stroke-linejoin:miter"
           id="rect3096" />
      </g>
      <text
         id="text3098"
         font-size="126"
         font-weight="normal"
         font-style="normal"
         y="758.2677"
         x="276.37796"
         xml:space="preserve"
         style="font-size:9.37323666px;font-style:normal;font-weight:normal;text-anchor:start;fill:#000000;stroke-width:0.025in;font-family:Helvetica">Refer to</text>
      <text
         id="text3100"
         font-size="126"
         font-weight="normal"
         font-style="normal"
         y="768.89764"
         x="276.37796"
         xml:space="preserve"
         style="font-size:9.37323666px;font-style:normal;font-weight:normal;text-anchor:start;fill:#000000;stroke-width:0.025in;font-family:Helvetica">PrcGnuCap.hpp</text>
      <text
         id="text3102"
         font-size="126"
         font-weight="normal"
         font-style="normal"
         y="715.74799"
         x="287.00787"
         xml:space="preserve"
         style="font-size:9.37323666px;font-style:normal;font-weight:normal;text-anchor:start;fill:#000000;stroke-width:0.025in;font-family:Helvetica">PrcGnuCap</text>
    </g>
    <rect
       x="117.07274"
       y="240.24344"
       width="520.14026"
       height="572.8089"
       rx="0"
       style="fill:none;stroke:#000000;stroke-width:0.59512615;stroke-linecap:butt;stroke-linejoin:miter"
       id="rect3106" />
    <text
       style="font-size:18.74647331px;font-style:normal;font-weight:normal;text-anchor:start;fill:#000000;stroke-width:0.025in;font-family:Helvetica"
       xml:space="preserve"
       x="216.14174"
       y="279.92123"
       font-style="normal"
       font-weight="normal"
       font-size="252"
       id="text3108">Process Class Hierarchy Object Model</text>
    <g
       id="g4586">
      <polyline
         transform="matrix(0.06304966,0,0,0.07439077,91.971933,241.00108)"
         id="polyline3104"
         style="fill:none;stroke:#000000;stroke-width:8.68976688;stroke-linecap:butt;stroke-linejoin:miter"
         points="2787,6188 2787,5952 4535,5952 " />
      <polyline
         transform="matrix(0.07439077,0,0,0.0743836,40.287504,241.29712)"
         id="polyline3110"
         style="fill:none;stroke:#000000;stroke-width:8.00038528;stroke-linecap:butt;stroke-linejoin:miter"
         points="4535,5952 4535,6188 " />
    </g>
    <polyline
       points="1795,4440 1795,4204 5338,4204 5338,4440 "
       style="fill:none;stroke:#000000;stroke-width:7.1144104;stroke-linecap:butt;stroke-linejoin:miter"
       id="polyline3112"
       transform="matrix(0.09406351,0,0,0.07439077,45.647215,240.49598)" />
    <text
       id="text4451"
       font-size="126"
       font-weight="normal"
       font-style="normal"
       y="301.18109"
       x="325.98425"
       xml:space="preserve"
       style="font-size:9.37323666px;font-style:normal;font-weight:normal;text-anchor:start;fill:#000000;stroke-width:0.025in;font-family:Helvetica">Last Update : 2014-01-21</text>
    <g
       id="g4567"
       transform="translate(-28.346471,1.7301304e-5)">
      <g
         id="g4544"
         transform="matrix(0.89892836,0,0,1,113.62161,1.7301304e-5)">
        <rect
           id="rect4546"
           style="fill:none;stroke:#000000;stroke-width:0.62769186;stroke-linecap:butt;stroke-linejoin:miter"
           rx="0"
           height="35.112442"
           width="98.344597"
           y="612.71802"
           x="464.99838" />
        <rect
           id="rect4548"
           style="fill:none;stroke:#000000;stroke-width:0.62769186;stroke-linecap:butt;stroke-linejoin:miter"
           rx="0"
           height="21.052588"
           width="98.344597"
           y="591.66547"
           x="464.99838" />
        <rect
           id="rect4550"
           style="fill:none;stroke:#000000;stroke-width:0.62769186;stroke-linecap:butt;stroke-linejoin:miter"
           rx="0"
           height="21.052588"
           width="98.344597"
           y="570.53845"
           x="464.99838" />
      </g>
      <text
         style="font-size:9.37323666px;font-style:normal;font-weight:normal;text-anchor:start;fill:#000000;stroke-width:0.025in;font-family:Helvetica"
         xml:space="preserve"
         x="552.75592"
         y="584.64563"
         font-style="normal"
         font-weight="normal"
         font-size="126"
         id="text4552">PrcGaw</text>
      <text
         style="font-size:9.37323666px;font-style:normal;font-weight:normal;text-anchor:start;fill:#000000;stroke-width:0.025in;font-family:Helvetica"
         xml:space="preserve"
         x="538.5827"
         y="627.16534"
         font-style="normal"
         font-weight="normal"
         font-size="126"
         id="text4554">Refer to</text>
      <text
         style="font-size:9.37323666px;font-style:normal;font-weight:normal;text-anchor:start;fill:#000000;stroke-width:0.025in;font-family:Helvetica"
         xml:space="preserve"
         x="538.5827"
         y="637.79523"
         font-style="normal"
         font-weight="normal"
         font-size="126"
         id="text4556">PrcGaw.hpp</text>
    </g>
    <polyline
       transform="matrix(0.07439077,0,0,0.03734671,57.065302,404.93587)"
       id="polyline4576"
       style="fill:none;stroke:#000000;stroke-width:11.29076385;stroke-linecap:butt;stroke-linejoin:miter"
       points="3590,4440 3590,3968 " />
    <polyline
       points="3590,4440 3590,3968 "
       style="fill:none;stroke:#000000;stroke-width:11.48071671;stroke-linecap:butt;stroke-linejoin:miter"
       id="polyline4578"
       transform="matrix(0.07439077,0,0,0.0361211,170.4656,410.14699)" />
  </g>
</svg>
