v 20130925 2
C 40000 40000 0 0 0 title-A3.sym
C 44400 45900 1 0 0 resistor-2.sym
{
T 44800 46250 5 10 0 0 0 0 1
device=RESISTOR
T 44700 46200 5 10 1 1 0 0 1
refdes=R2
T 44700 45600 5 10 1 1 0 0 1
value=309
}
C 47100 45900 1 0 0 resistor-2.sym
{
T 47500 46250 5 10 0 0 0 0 1
device=RESISTOR
T 47400 46200 5 10 1 1 0 0 1
refdes=R4
T 47400 45600 5 10 1 1 0 0 1
value=9.1
}
C 45800 45500 1 270 0 resistor-2.sym
{
T 46150 45100 5 10 0 0 270 0 1
device=RESISTOR
T 45400 45100 5 10 1 1 0 0 1
refdes=R3
T 45300 44800 5 10 1 1 0 0 1
value=500
T 45300 43500 5 10 1 1 0 0 1
comment=0-1000 Ohm
T 45700 43800 5 10 1 1 0 0 1
documentation=Bias
}
C 42800 45900 1 0 0 resistor-2.sym
{
T 43200 46250 5 10 0 0 0 0 1
device=RESISTOR
T 43200 46400 5 10 1 1 180 0 1
refdes=R1
T 43600 46400 5 10 1 1 180 0 1
value=1K
}
C 49900 45100 1 0 0 inductor-1.sym
{
T 50100 45600 5 10 0 0 0 0 1
device=INDUCTOR
T 50000 44900 5 10 1 1 0 0 1
refdes=L2
T 50100 45800 5 10 0 0 0 0 1
symversion=0.1
T 50400 44900 5 10 1 1 0 0 1
value=50nH
}
C 49400 48500 1 270 0 inductor-1.sym
{
T 49900 48300 5 10 0 0 270 0 1
device=INDUCTOR
T 49700 48100 5 10 1 1 0 0 1
refdes=L1
T 50100 48300 5 10 0 0 270 0 1
symversion=0.1
T 49700 47800 5 10 1 1 0 0 1
value=90nH
}
C 48900 47600 1 90 0 capacitor-1.sym
{
T 48200 47800 5 10 0 0 90 0 1
device=CAPACITOR
T 48400 48300 5 10 1 1 180 0 1
refdes=C2
T 48000 47800 5 10 0 0 90 0 1
symversion=0.1
T 47900 47700 5 10 1 1 0 0 1
value=1500pF
}
C 53100 44200 1 90 0 capacitor-1.sym
{
T 52400 44400 5 10 0 0 90 0 1
device=CAPACITOR
T 53400 44900 5 10 1 1 180 0 1
refdes=C6
T 52200 44400 5 10 0 0 90 0 1
symversion=0.1
T 53100 44300 5 10 1 1 0 0 1
value=150pF
}
C 53100 45500 1 90 0 capacitor-1.sym
{
T 52400 45700 5 10 0 0 90 0 1
device=CAPACITOR
T 53400 46200 5 10 1 1 180 0 1
refdes=C4
T 52200 45700 5 10 0 0 90 0 1
symversion=0.1
T 53100 45600 5 10 1 1 0 0 1
value=3pF
}
C 47000 44600 1 90 0 capacitor-1.sym
{
T 46300 44800 5 10 0 0 90 0 1
device=CAPACITOR
T 47300 45300 5 10 1 1 180 0 1
refdes=C1
T 46100 44800 5 10 0 0 90 0 1
symversion=0.1
T 47000 44700 5 10 1 1 0 0 1
value=1uF
}
C 51700 44200 1 90 0 capacitor-1.sym
{
T 51000 44400 5 10 0 0 90 0 1
device=CAPACITOR
T 52000 44900 5 10 1 1 180 0 1
refdes=C5
T 50800 44400 5 10 0 0 90 0 1
symversion=0.1
T 51700 44300 5 10 1 1 0 0 1
value=80pF
T 51100 43500 5 10 1 1 0 0 1
comment=15-150pF
T 51200 43800 5 10 1 1 0 0 1
documentation=Tuning
}
C 53100 46600 1 0 0 capacitor-1.sym
{
T 53300 47300 5 10 0 0 0 0 1
device=CAPACITOR
T 53700 46900 5 10 1 1 0 0 1
refdes=C3
T 53300 47500 5 10 0 0 0 0 1
symversion=0.1
T 53700 46500 5 10 1 1 0 0 1
value=1000pF
}
C 49000 45800 1 0 0 nmos-3.sym
{
T 49600 46300 5 10 0 0 0 0 1
device=NMOS_TRANSISTOR
T 49600 46200 5 10 1 1 0 0 1
refdes=Q1
T 49600 45900 5 10 1 1 0 0 1
value=MRF150
}
C 44200 44600 1 90 0 zener-1.sym
{
T 43600 45000 5 10 0 0 90 0 1
device=ZENER_DIODE
T 43700 45400 5 10 1 1 180 0 1
refdes=ZD1
T 43100 44600 5 10 1 1 0 0 1
value=1N751A
T 43200 44900 5 10 1 1 0 0 1
comment=5.1V
}
C 41700 44300 1 0 0 vdc-1.sym
{
T 41200 44750 5 10 1 1 0 0 1
refdes=Vsw
T 42400 45150 5 10 0 0 0 0 1
device=VOLTAGE_SOURCE
T 42400 45350 5 10 0 0 0 0 1
footprint=none
T 41000 44450 5 10 1 1 0 0 1
value=DC 30V
}
C 41700 47100 1 0 0 vdc-1.sym
{
T 41100 47550 5 10 1 1 0 0 1
refdes=Vosc
T 42400 47950 5 10 0 0 0 0 1
device=VOLTAGE_SOURCE
T 42400 48150 5 10 0 0 0 0 1
footprint=none
T 41000 47250 5 10 1 1 0 0 1
value=DC 30V
}
C 51100 46700 1 0 0 txline4-1.sym
{
T 51200 46600 5 10 0 1 0 0 1
device=TLIN
T 51300 47200 5 10 1 1 0 0 1
refdes=TL1
T 50500 47000 5 10 1 1 0 0 1
documentation=1/4 wave transformer
T 51100 46100 5 10 1 1 0 0 1
comment=Zo = 26.7
}
C 51100 46400 1 0 0 gnd-1.sym
C 51700 46400 1 0 0 gnd-1.sym
C 48700 43800 1 0 0 gnd-1.sym
C 48600 47300 1 0 0 gnd-1.sym
C 49400 45500 1 0 0 gnd-1.sym
N 48000 46000 49000 46000 4
N 48800 46000 48800 45200 4
N 48800 45200 49900 45200 4
N 50800 45200 52900 45200 4
N 52900 45500 52900 45100 4
N 51900 46800 53100 46800 4
N 52900 46400 52900 46800 4
N 49500 47600 49500 46600 4
N 49500 46800 51100 46800 4
N 45300 46000 47100 46000 4
N 46800 45500 46800 46000 4
N 45900 45500 45900 46000 4
N 44000 45500 44000 46000 4
N 44400 46000 43700 46000 4
N 42000 48700 49500 48700 4
N 49500 48500 49500 48700 4
N 48700 48500 48700 48700 4
N 52900 44100 44000 44100 4
N 44000 44600 44000 44100 4
N 45900 44600 45900 44100 4
N 46800 44600 46800 44100 4
N 42000 46000 42800 46000 4
N 42000 48700 42000 48300 4
C 41900 46800 1 0 0 gnd-1.sym
C 41900 44000 1 0 0 gnd-1.sym
N 54000 46800 55100 46800 4
N 55100 46800 55100 46400 4
T 48100 46200 9 10 1 0 0 0 2
Ferrit
Bead
B 48200 45900 300 200 3 0 0 0 -1 -1 0 -1 -1 -1 -1 -1
C 55000 46400 1 270 0 resistor-2.sym
{
T 55350 46000 5 10 0 0 270 0 1
device=RESISTOR
T 55300 46000 5 10 1 1 0 0 1
refdes=Rload
T 55400 45700 5 10 1 1 0 0 1
value=50
}
C 55000 45200 1 0 0 gnd-1.sym
N 42000 46000 42000 45500 4
T 51700 40900 9 18 1 0 0 0 1
Synrad RF Driver IV
T 50500 40100 9 10 1 0 0 0 1
1
T 52100 40100 9 10 1 0 0 0 1
1
T 50500 40400 9 10 1 0 0 0 1
synrad-rf-driver.sch
T 54000 40400 9 10 1 0 0 0 1
2015 - 02 - 05
T 54000 40100 9 10 1 0 0 0 1
M.S.Waters
C 41000 41700 1 0 0 spice-model-1.sym
{
T 41100 42400 5 10 0 1 0 0 1
device=model
T 41100 42300 5 10 1 1 0 0 1
refdes=A1
T 42300 42000 5 10 1 1 0 0 1
model-name=1N751A
T 41500 41800 5 10 1 1 0 0 1
file=unknown
}
C 44500 41700 1 0 0 spice-model-1.sym
{
T 44600 42400 5 10 0 1 0 0 1
device=model
T 44600 42300 5 10 1 1 0 0 1
refdes=A1
T 45800 42000 5 10 1 1 0 0 1
model-name=MRF150
T 45000 41800 5 10 1 1 0 0 1
file=unknown
}
N 51500 45200 51500 45100 4
N 51500 44200 51500 44100 4
N 52900 44200 52900 44100 4
