/* XPM */
static const char * sim_plot_xpm[ ] =
{
  "22 22 79 1",
  " 	c None",
  ".	c #000000",
  "+	c #F0F0F0",
  "@	c #F3F3F3",
  "#	c #F4F4F4",
  "$	c #ECECEC",
  "%	c #E8E8E7",
  "&	c #E3E3E3",
  "*	c #DADAD9",
  "=	c #D5D5D4",
  "-	c #D0D0CF",
  ";	c #CBCBCA",
  ">	c #C6C6C5",
  ",	c #C1C1C0",
  "'	c #BCBCBB",
  ")	c #B7B7B5",
  "!	c #F7F7F7",
  "~	c #F9F9F9",
  "{	c #EFEFEE",
  "]	c #EAEAE9",
  "^	c #E5E5E4",
  "/	c #DBDBDA",
  "(	c #D6D6D5",
  "_	c #00007F",
  ":	c #C7C7C5",
  "<	c #C2C2C0",
  "[	c #BDBDBB",
  "}	c #B8B8B6",
  "|	c #FFFFFF",
  "1	c #EFEFEF",
  "2	c #EAEAEA",
  "3	c #E5E5E5",
  "4	c #D1D1D0",
  "5	c #CCCCCB",
  "6	c #E9E9E9",
  "7	c #E1E1E0",
  "8	c #D3D3D2",
  "9	c #CFCFCD",
  "0	c #CACAC9",
  "a	c #C5C5C4",
  "b	c #BBBBBA",
  "c	c #B6B6B5",
  "d	c #E2E2E1",
  "e	c #DEDEDD",
  "f	c #CDCDCC",
  "g	c #C8C8C7",
  "h	c #C3C3C2",
  "i	c #BFBFBD",
  "j	c #B5B5B3",
  "k	c #DFDFDE",
  "l	c #E0E0DF",
  "m	c #DDDDDC",
  "n	c #D7D7D6",
  "o	c #C4C4C2",
  "p	c #BFBFBE",
  "q	c #BBBBB9",
  "r	c #B2B2B0",
  "s	c #D8D8D7",
  "t	c #CDCDCB",
  "u	c #C9C9C8",
  "v	c #C1C1BF",
  "w	c #B8B8B7",
  "x	c #B4B4B2",
  "y	c #BEBEBC",
  "z	c #BABAB8",
  "A	c #B6B6B4",
  "B	c #B1B1B0",
  "C	c #CBCBC9",
  "D	c #BEBEBD",
  "E	c #B3B3B1",
  "F	c #AFAFAD",
  "G	c #AAAAA8",
  "H	c #B3B3B2",
  "I	c #B0B0AE",
  "J	c #ACACAA",
  "K	c #A8A8A7",
  "L	c #C7C7C6",
  "M	c #C0C0BF",
  "N	c #A9A9A7",
  "                      ",
  "                      ",
  "                      ",
  "  .................   ",
  " .+@#@+$%&.*=-;>,').  ",
  " .@!~!@{]^./(__:<[}.  ",
  " .#~|~#123./_45_<[}.  ",
  " .@!~!@{]^./_45_<[}.  ",
  " ._@#@+$%&._=-;>_').  ",
  " ._{1{$637._890a_bc.  ",
  " .%_2]%3de_(4fghi_j.  ",
  " .._......_......_..  ",
  " .k_llkm*n_-5gopq_r.  ",
  " .*/_/*s(_.tuav[wx_.  ",
  " .=(_(=84_.ua<yzAB_.  ",
  " .-44_-9_C.a<Dq)EFG.  ",
  " .;55_;0_>.vyq)HIJK.  ",
  " .>:L:__h,.[z)HIJKK.  ",
  " .,<<<,Mi[.wAEIJNKK.  ",
  "  .................   ",
  "                      ",
  "                      "
};
