v 20040111 1
C 2100 3250 1 90 0 capacitor-4.sym
{
T 1700 3750 5 10 1 1 180 0 1
refdes=C1
T 1450 3400 5 10 1 1 0 0 1
value=10pF
}
C 3400 4250 1 90 0 capacitor-4.sym
{
T 3700 4750 5 10 1 1 180 0 1
refdes=C2
T 3300 4400 5 10 1 1 0 0 1
value=10pF
}
C 2000 4150 1 90 0 resistor-2.sym
{
T 1750 4800 5 10 1 1 180 0 1
refdes=R1
T 1300 4450 5 10 1 1 0 0 1
value=100K
}
C 3300 3250 1 90 0 resistor-2.sym
{
T 3700 3900 5 10 1 1 180 0 1
refdes=R2
T 3400 3550 5 10 1 1 0 0 1
value=100K
}
C 1200 3700 1 90 0 voltage-1.sym
{
T 750 4200 5 10 1 1 180 0 1
refdes=Vin
T 300 3750 5 10 1 1 0 0 1
value=100mV
}
C 2000 2950 1 0 0 gnd-1.sym
T 1050 5400 9 10 1 0 0 0 1
Phase  Shifter  -  Bridge
N 1000 4600 1000 5050 4
N 1000 5050 3200 5050 4
N 1000 3700 1000 3250 4
N 1000 3250 3200 3250 4
N 3200 4250 3200 4150 4
N 1900 4150 1900 4050 4
C 3000 4250 1 180 0 resistor-2.sym
{
T 2350 4300 5 10 1 1 0 0 1
refdes=Rout
T 2850 4000 5 10 1 1 180 0 1
value=10Meg
}
N 1900 4150 2100 4150 4
N 3000 4150 3200 4150 4
