v 20150930 2
C 40000 40000 0 0 0 title-A4.sym
C 47700 46800 1 270 0 resistor-2.sym
{
T 47400 46400 5 10 1 1 0 0 1
refdes=R3
T 47400 46100 5 10 1 1 0 0 1
value=1K
}
C 50100 46300 1 270 0 resistor-2.sym
{
T 50400 45900 5 10 1 1 0 0 1
refdes=Rload
T 50400 45600 5 10 1 1 0 0 1
value=150
}
C 43700 45900 1 0 0 resistor-2.sym
{
T 44000 45800 5 10 1 1 180 0 1
refdes=R2
T 44600 45800 5 10 1 1 180 0 1
value=470K
}
N 45200 46400 45200 46800 4
N 44600 46800 44600 46000 4
N 41800 45300 41800 45000 4
N 41800 45000 50200 45000 4
N 46500 46600 46500 46800 4
N 44600 46800 45400 46800 4
C 42500 46700 1 0 0 resistor-2.sym
{
T 42800 46950 5 10 1 1 0 0 1
refdes=R1
T 42800 46500 5 10 1 1 0 0 1
value=100
T 42700 46300 5 10 1 1 0 0 1
description=1 Watt
}
T 45800 40900 9 16 1 0 0 0 1
Power Supply Configuration 1
C 41500 45300 1 0 0 vac-1.sym
{
T 40800 46050 5 10 1 1 0 0 1
refdes=Vmains
T 42200 46150 5 10 0 0 0 0 1
device=vac
T 42200 46350 5 10 0 0 0 0 1
footprint=none
T 40700 45750 5 10 1 1 0 0 1
value=AC 240V
}
N 41800 46500 41800 46800 4
C 49200 46200 1 90 0 npn-3.sym
{
T 48700 47100 5 10 0 0 90 0 1
device=NPN_TRANSISTOR
T 48800 47400 5 10 1 1 180 0 1
refdes=Q1
T 49000 47200 5 10 1 1 180 0 1
value=BC548
}
N 43700 46800 43700 46000 4
N 46500 45700 46500 45000 4
N 45200 45500 45200 45000 4
C 43700 46600 1 0 0 capacitor-1.sym
{
T 43900 47300 5 10 0 0 0 0 1
device=CAPACITOR
T 43800 46900 5 10 1 1 0 0 1
refdes=C1
T 43900 47500 5 10 0 0 0 0 1
symversion=0.1
T 44300 46900 5 10 1 1 0 0 1
value=1uF
T 43800 46400 5 10 1 1 0 0 1
description=250VAC
}
C 49400 45600 1 270 1 capacitor-1.sym
{
T 50100 45800 5 10 0 0 90 2 1
device=CAPACITOR
T 49300 46300 5 10 1 1 180 6 1
refdes=C4
T 50300 45800 5 10 0 0 90 2 1
symversion=0.1
T 49000 45900 5 10 1 1 180 6 1
value=100uF
}
C 46300 45700 1 270 1 capacitor-1.sym
{
T 47000 45900 5 10 0 0 90 2 1
device=CAPACITOR
T 46600 46400 5 10 1 1 180 6 1
refdes=C2
T 47200 45900 5 10 0 0 90 2 1
symversion=0.1
T 47100 45900 5 10 1 1 0 6 1
value=220uF
}
T 44800 40400 9 10 1 0 0 0 1
mains-ps-1.sch
T 45300 40100 9 10 1 0 0 0 1
1
T 46300 40100 9 10 1 0 0 0 1
1
T 48600 40400 9 10 1 0 0 0 1
2016 - 03 - 28
T 48600 40100 9 10 1 0 0 0 1
M.S.Waters
N 42500 46800 41800 46800 4
T 40400 40400 9 10 1 0 0 0 3
This schematic cannot be simulated
using either NG-Spice or GNU-Cap
(last tested 2016-03-28).
C 40500 41700 1 0 0 spice-model-1.sym
{
T 40600 42400 5 10 0 1 0 0 1
device=model
T 40600 42300 5 10 1 1 0 0 1
refdes=A1
T 41800 42000 5 10 1 1 0 0 1
model-name=IN4004
T 41000 41800 5 10 1 1 0 0 1
file=../../lib/models/1n4004.mod
}
C 45400 45500 1 90 0 diode-1.sym
{
T 44800 45900 5 10 0 0 90 0 1
device=DIODE
T 45700 46000 5 10 1 1 180 0 1
refdes=D1
T 45300 45600 5 10 1 1 0 0 1
value=1N4004
}
C 45400 46600 1 0 0 diode-1.sym
{
T 45800 47200 5 10 0 0 0 0 1
device=DIODE
T 45700 47100 5 10 1 1 0 0 1
refdes=D2
T 45500 46400 5 10 1 1 0 0 1
value=1N4004
}
C 48000 45000 1 90 0 zener-1.sym
{
T 47400 45400 5 10 0 0 90 0 1
device=ZENER_DIODE
T 47500 45500 5 10 1 1 0 6 1
refdes=DZ1
T 47500 45300 5 10 1 1 0 6 1
value=1N752
T 47500 45100 5 10 1 1 0 6 1
description=5.6V
}
N 43400 46800 43700 46800 4
T 41500 46900 9 10 1 0 0 0 1
ACTIVE
T 41400 44800 9 10 1 0 0 0 1
NEUTRAL
N 46300 46800 48200 46800 4
N 47800 45900 48700 45900 4
N 49200 46800 50200 46800 4
N 50200 46800 50200 46300 4
N 49600 46500 49600 46800 4
N 49600 45600 49600 45000 4
N 50200 45400 50200 45000 4
N 48700 46200 48700 45900 4
C 48500 45000 1 270 1 capacitor-1.sym
{
T 49200 45200 5 10 0 0 90 2 1
device=CAPACITOR
T 48400 45700 5 10 1 1 180 6 1
refdes=C3
T 49400 45200 5 10 0 0 90 2 1
symversion=0.1
T 48200 45300 5 10 1 1 180 6 1
value=10uF
}
C 46500 41700 1 0 0 spice-model-1.sym
{
T 46600 42400 5 10 0 1 0 0 1
device=model
T 46600 42300 5 10 1 1 0 0 1
refdes=A3
T 47800 42000 5 10 1 1 0 0 1
model-name=BC548
T 47000 41800 5 10 1 1 0 0 1
file=../../lib/models/bc548.mod
}
C 43500 41700 1 0 0 spice-model-1.sym
{
T 43600 42400 5 10 0 1 0 0 1
device=model
T 43600 42300 5 10 1 1 0 0 1
refdes=A2
T 44800 42000 5 10 1 1 0 0 1
model-name=1N752
T 44000 41800 5 10 1 1 0 0 1
file=../../lib/models/1n752.mod
}
T 40500 43000 9 10 1 0 0 0 3
A circuit something like this was found in a water pump. It was used to generate a DC supply for the control
electronics which were based around a 8 pin PIC 12F509. It's quite a dangerous circuit to test not simply
owing to the presence of the mains supply but because the ground is connected to the mains neutral.
C 43200 44500 1 0 0 gnd-2.sym
N 43300 45000 43300 44800 4
