v 20150930 2
C 7500 86350 1 90 0 capacitor-1.sym
{
T 7000 86900 5 10 1 1 0 0 1
refdes=C2
T 7250 86700 5 10 1 1 180 0 1
value=1n
T 7500 86350 5 10 0 1 0 0 1
device=CAPACITOR
}
C 6650 86050 1 0 0 gnd-1.sym
C 3500 87400 1 270 0 voltage-2.sym
{
T 3050 87000 5 10 1 1 0 0 1
refdes=Vin
T 3450 86900 5 10 1 1 180 0 1
value=AC 1V
T 3500 87400 5 10 0 1 0 0 1
device=VOLTAGE_SOURCE
}
T 5700 83250 9 16 1 0 0 0 1
Le Pacific MM RIAA Pre-amplifier
T 10050 82800 9 11 1 0 0 4 1
2016 - 10 - 18
C 4600 86500 1 90 0 resistor-2.sym
{
T 4300 87150 5 10 1 1 180 0 1
refdes=R4
T 4350 86900 5 10 1 1 180 0 1
value=100
T 4600 86500 5 10 0 1 0 0 1
device=RESISTOR
}
C 5200 87950 1 0 0 capacitor-1.sym
{
T 6050 88350 5 10 1 1 180 0 1
refdes=C1
T 5750 87950 5 10 1 1 0 0 1
value=470n
T 5200 87950 5 10 0 1 0 0 1
device=CAPACITOR
}
C 1200 82800 1 0 0 spice-model-1.sym
{
T 1300 83500 5 10 0 1 0 0 1
device=model
T 1300 83400 5 10 1 1 0 0 1
refdes=A1
T 2500 83100 5 10 1 1 0 0 1
model-name=2SK170
T 1700 82900 5 10 1 1 0 0 1
file=../../lib/models/2sk170.mod
}
C 5300 89050 1 90 1 resistor-2.sym
{
T 5000 88650 5 10 1 1 0 6 1
refdes=R5
T 5050 88400 5 10 1 1 0 6 1
value=2.4K
T 5300 89050 5 10 0 1 0 0 1
device=RESISTOR
}
C 6250 88250 1 180 1 resistor-2.sym
{
T 6600 88450 5 10 1 1 180 6 1
refdes=R1
T 6550 88000 5 10 1 1 180 6 1
value=27K
T 6250 88250 5 10 0 1 0 0 1
device=RESISTOR
}
C 7200 87250 1 270 1 resistor-2.sym
{
T 6900 87750 5 10 1 1 180 6 1
refdes=R2
T 7450 87750 5 10 1 1 180 6 1
value=3K
T 7200 87250 5 10 0 1 0 0 1
device=RESISTOR
}
N 3700 87500 4700 87500 4
N 6250 88150 6100 88150 4
N 7150 88150 7900 88150 4
N 9400 86350 3700 86350 4
N 3700 86350 3700 86500 4
N 3700 87400 3700 87500 4
N 4500 87400 4500 87500 4
N 4500 86500 4500 86350 4
C 3500 87850 1 0 1 vdc-1.sym
{
T 3900 88400 5 10 1 1 0 6 1
refdes=Vcc
T 2800 88700 5 10 0 0 180 2 1
device=VOLTAGE_SOURCE
T 2800 88900 5 10 0 0 180 2 1
footprint=none
T 4150 88150 5 10 1 1 0 6 1
value=DC 24V
}
C 3100 87550 1 0 0 gnd-1.sym
N 3200 89050 9400 89050 4
C 7700 86350 1 270 1 capacitor-1.sym
{
T 8200 86900 5 10 1 1 0 6 1
refdes=C3
T 7950 86700 5 10 1 1 180 6 1
value=1n
T 7700 86350 5 10 0 1 0 0 1
device=CAPACITOR
}
N 7900 88150 7900 87250 4
C 8450 86500 1 270 1 resistor-2.sym
{
T 8750 87150 5 10 1 1 180 6 1
refdes=R6
T 8700 86900 5 10 1 1 180 6 1
value=100
T 8450 86500 5 10 0 1 0 0 1
device=RESISTOR
}
N 5200 87300 5200 86350 4
C 9500 89050 1 90 1 resistor-2.sym
{
T 9200 88650 5 10 1 1 0 6 1
refdes=R7
T 9250 88400 5 10 1 1 0 6 1
value=2.4K
T 9500 89050 5 10 0 1 0 0 1
device=RESISTOR
}
N 8900 87500 7900 87500 4
N 8550 87500 8550 87400 4
N 8550 86500 8550 86350 4
N 9400 87300 9400 86350 4
C 9650 88050 1 0 0 output-1.sym
{
T 9750 88350 5 10 0 0 0 0 1
device=OUTPUT
T 9900 88050 5 10 1 1 0 0 1
refdes=Vout
}
N 9650 88150 9400 88150 4
C 4700 87300 1 0 0 spice-njfet-1.sym
{
T 5500 87700 5 10 0 0 0 0 1
device=NFET_TRANSISTOR
T 5300 87700 5 10 1 1 0 0 1
refdes=J1
T 5250 87500 5 10 1 1 0 0 1
value=2SK170
}
C 8900 87300 1 0 0 spice-njfet-1.sym
{
T 9700 87700 5 10 0 0 0 0 1
device=NFET_TRANSISTOR
T 9500 87700 5 10 1 1 0 0 1
refdes=J2
T 9450 87500 5 10 1 1 0 0 1
value=2SK170
}
N 5200 88150 5200 88000 4
N 9400 88150 9400 88000 4
C 300 82400 0 0 0 title-A4.sym
T 5400 82500 9 11 1 0 0 0 1
1
T 7000 82500 9 11 1 0 0 0 1
1
T 5100 82800 9 11 1 0 0 0 1
le-pacific-mm-pre.sch
T 8900 82500 9 11 1 0 0 0 1
M. S. Waters
