v 20150930 2
C 40000 40000 0 0 0 title-B.sym
C 47300 45700 1 180 1 capacitor-1.sym
{
T 47500 45000 5 10 0 0 0 2 1
device=CAPACITOR
T 47500 44800 5 10 0 0 0 2 1
symversion=0.1
T 47300 45300 5 10 1 1 180 8 1
refdes=C26
T 48200 45400 5 10 1 1 180 0 1
value=10p
}
C 48200 46400 1 180 0 resistor-2.sym
{
T 47800 46050 5 10 0 0 180 0 1
device=RESISTOR
T 47600 46500 5 10 1 1 180 8 1
refdes=R66
T 47900 46000 5 10 1 1 0 6 1
value=22k
}
C 46800 46200 1 0 1 resistor-2.sym
{
T 46400 46550 5 10 0 0 180 2 1
device=RESISTOR
T 46100 46500 5 10 1 1 0 0 1
refdes=R412
T 46300 46100 5 10 1 1 180 6 1
value=47k
}
C 47200 45200 1 90 1 resistor-2.sym
{
T 46850 44800 5 10 0 0 270 2 1
device=RESISTOR
T 46900 44600 5 10 1 1 0 6 1
refdes=R64
T 46900 44900 5 10 1 1 180 0 1
value=3.9k
}
N 47300 46300 46800 46300 4
N 47100 45500 47300 45500 4
N 48200 45500 48400 45500 4
N 48400 46300 48400 45200 4
N 47100 45200 47100 46300 4
C 49200 43800 1 0 0 gnd-1.sym
C 45700 44700 1 90 0 resistor-2.sym
{
T 45350 45100 5 10 0 0 90 0 1
device=RESISTOR
T 45400 45300 5 10 1 1 180 0 1
refdes=R420
T 45400 45000 5 10 1 1 0 6 1
value=2.4k
}
N 45600 46300 45600 45600 4
N 45600 44700 45600 44100 4
N 45300 46300 45900 46300 4
{
T 45500 46350 5 10 0 0 0 0 1
netname=Vfb
}
C 48800 45800 1 0 0 resistor-2.sym
{
T 49200 46150 5 10 0 0 0 0 1
device=RESISTOR
T 49500 46200 5 10 1 1 180 0 1
refdes=R464
T 49400 45700 5 10 1 1 180 0 1
value=10
}
C 48200 45200 1 270 0 capacitor-1.sym
{
T 48900 45000 5 10 0 0 270 0 1
device=CAPACITOR
T 48500 44900 5 10 1 1 0 0 1
refdes=C424
T 49100 45000 5 10 0 0 270 0 1
symversion=0.1
T 48700 44700 5 10 1 1 0 0 1
value=18n
}
C 50300 44400 1 90 0 voltage-1.sym
{
T 49800 44500 5 10 0 0 90 0 1
device=VOLTAGE_SOURCE
T 49600 44800 5 10 1 1 180 8 1
refdes=Vo
T 50300 44400 5 10 0 0 0 0 1
value=AC 0 DC 0
}
N 50100 45300 50100 46300 4
N 50100 44400 50100 44100 4
N 51600 46300 51600 45200 4
C 51500 45200 1 270 0 resistor-2.sym
{
T 51850 44800 5 10 0 0 270 0 1
device=RESISTOR
T 51400 44800 5 10 1 1 0 6 1
refdes=Rspkr
T 51100 44600 5 10 1 1 0 0 1
value=8
}
N 51300 46300 51600 46300 4
N 51300 45500 51600 45500 4
N 51600 44100 51600 44300 4
C 50400 46200 1 0 0 inductor-1.sym
{
T 50750 46600 5 10 1 1 180 6 1
refdes=L2
T 50700 46100 5 10 1 1 0 0 1
value=0.7u
T 50600 46700 5 10 0 0 0 0 1
device=INDUCTOR
T 50600 46900 5 10 0 0 0 0 1
symversion=0.1
}
N 50100 46300 50400 46300 4
C 51300 45600 1 180 0 resistor-2.sym
{
T 50600 45800 5 10 1 1 180 6 1
refdes=R462
T 50750 45200 5 10 1 1 0 0 1
value=10
T 50900 45250 5 10 0 0 180 0 1
device=RESISTOR
}
N 45600 44100 51600 44100 4
N 50400 45500 50100 45500 4
N 49700 45900 50100 45900 4
N 48200 46300 48400 46300 4
N 48400 45900 48800 45900 4
N 47100 44300 47100 44100 4
N 48400 44100 48400 44300 4
C 45300 46200 1 0 1 output-1.sym
{
T 45200 46500 5 10 0 0 0 6 1
device=OUTPUT
T 45000 46500 5 10 1 1 0 6 1
description=Vfb
}
