v 20110115 2
C 3600 86050 1 0 1 npn-3.sym
{
T 2700 86400 5 10 1 1 0 6 1
refdes=Q1
T 2250 86150 5 10 1 1 0 0 1
value=BC548
}
C 5900 86850 1 270 0 resistor-2.sym
{
T 6300 86450 5 10 1 1 0 0 1
refdes=R4
T 6650 86350 5 10 1 1 180 0 1
value=100K
}
C 5900 88150 1 270 0 resistor-2.sym
{
T 6300 87750 5 10 1 1 0 0 1
refdes=R3
T 6650 87650 5 10 1 1 180 0 1
value=100K
}
C 4600 86850 1 270 0 resistor-2.sym
{
T 4900 86450 5 10 1 1 0 0 1
refdes=R2
T 5350 86350 5 10 1 1 180 0 1
value=470K
}
C 4700 86850 1 0 0 capacitor-1.sym
{
T 5400 87150 5 10 1 1 0 0 1
refdes=C2
T 5300 86850 5 10 1 1 0 0 1
value=220p
}
C 1500 88950 1 270 0 capacitor-1.sym
{
T 1800 88650 5 10 1 1 0 0 1
refdes=C1
T 2200 88350 5 10 1 1 180 0 1
value=100n
}
N 7600 85950 1000 85950 4
C 7400 86850 1 270 0 led-1.sym
{
T 7100 86350 5 10 1 1 0 0 1
refdes=D6
T 7500 86050 5 10 1 1 0 6 1
value=LED
}
C 7400 87750 1 270 0 led-1.sym
{
T 7100 87200 5 10 1 1 0 0 1
refdes=D5
T 7500 86900 5 10 1 1 0 6 1
value=LED
}
C 7400 88650 1 270 0 led-1.sym
{
T 7100 88150 5 10 1 1 0 0 1
refdes=D4
T 7500 87850 5 10 1 1 0 6 1
value=LED
}
C 6200 88450 1 0 0 diode-1.sym
{
T 6200 88750 5 10 1 1 0 0 1
refdes=D3
T 6900 88750 5 10 1 1 0 0 1
value=1N914
}
N 7100 88650 7600 88650 4
N 6000 88650 6000 88150 4
N 6000 87250 6000 86850 4
C 4600 87550 1 180 0 pnp-3.sym
{
T 3750 87200 5 10 1 1 180 0 1
refdes=Q2
T 3300 87450 5 10 1 1 180 6 1
value=BC558
}
N 3600 86550 4000 86550 4
N 4600 87050 4700 87050 4
N 5600 87050 6000 87050 4
N 3000 86050 3000 85950 4
N 4000 87550 4000 89750 4
N 6200 88650 3000 88650 4
C 2900 89750 1 270 0 inductor-1.sym
{
T 2700 89350 5 10 1 1 0 0 1
refdes=L1
T 2900 89250 5 10 1 1 180 0 1
value=0.25mH
}
N 3000 88850 3000 87050 4
N 1000 89750 4700 89750 4
C 1900 87250 1 0 0 diode-1.sym
{
T 2300 87750 5 10 1 1 0 0 1
refdes=D1
T 2100 87050 5 10 1 1 0 0 1
value=1N914
}
N 2800 87450 3000 87450 4
N 1900 87450 1700 87450 4
N 1700 88050 1700 85950 4
N 1700 89750 1700 88950 4
C 800 88250 1 270 0 battery-3.sym
{
T 200 87750 5 10 1 1 0 0 1
refdes=Vbatt
T 300 87450 5 10 1 1 0 0 1
value=1.5V
}
C 1100 88550 1 90 0 resistor-2.sym
{
T 800 89250 5 10 1 1 180 0 1
refdes=Rbatt
T 450 88800 5 10 1 1 0 0 1
value=1.0
}
N 1000 89750 1000 89450 4
N 1000 88550 1000 88250 4
N 1000 87150 1000 85950 4
C 3800 85650 1 0 0 gnd-1.sym
T 3500 90200 9 18 1 0 0 0 1
LED  Driver
C 1250 84700 1 0 0 spice-model-1.sym
{
T 1350 85300 5 10 1 1 0 0 1
refdes=A1
T 2550 85000 5 10 1 1 0 0 1
model-name=BC548
T 1750 84800 5 10 1 1 0 0 1
file=../../lib/bjt/bc548.mod
}
C 1250 83750 1 0 0 spice-model-1.sym
{
T 1350 84350 5 10 1 1 0 0 1
refdes=A2
T 2550 84050 5 10 1 1 0 0 1
model-name=BC558
T 1750 83850 5 10 1 1 0 0 1
file=../../lib/bjt/bc558.mod
}
C 4650 84700 1 0 0 spice-model-1.sym
{
T 4750 85300 5 10 1 1 0 0 1
refdes=A3
T 5950 85000 5 10 1 1 0 0 1
model-name=1N914
T 5150 84800 5 10 1 1 0 0 1
file=../../lib/diode/1n914.mod
}
C 4650 83750 1 0 0 spice-model-1.sym
{
T 4750 84350 5 10 1 1 0 0 1
refdes=A4
T 5950 84050 5 10 1 1 0 0 1
model-name=LED
T 5150 83850 5 10 1 1 0 0 1
file=../../lib/diode/led.mod
}
N 4700 86850 4700 87300 4
N 4700 88200 4700 89750 4
C 4900 87300 1 90 0 diode-1.sym
{
T 5200 87900 5 10 1 1 180 0 1
refdes=D2
T 5300 88100 5 10 1 1 180 0 1
value=1N914
}
