v 20130925 2
C 40000 40000 0 0 0 title-A4.sym
C 45900 45000 1 270 0 capacitor-1.sym
{
T 46250 44700 5 10 1 1 0 0 1
refdes=C1
T 46600 44400 5 10 1 1 180 0 1
value=1.0n
}
C 45000 44900 1 0 0 resistor-2.sym
{
T 45350 45200 5 10 1 1 0 0 1
refdes=R1
T 45300 44700 5 10 1 1 0 0 1
value=10k
}
N 45900 45000 46100 45000 4
{
T 46100 45100 5 10 1 1 0 0 1
netname=Vout
}
N 45000 45000 44800 45000 4
C 45400 43800 1 0 0 gnd-1.sym
N 44800 44100 46100 44100 4
T 46500 40950 9 16 1 0 0 0 1
Low Pass Filter
T 48700 40400 9 10 1 0 0 0 1
2015 - 04 - 10
T 44200 42800 9 10 1 0 0 0 4
The 3 dB point :
   - Calculated	= 1/6.28RC = 15.92 KHz
   - NG-Spice	= 15.92 KHz
   - GNU-Cap	= 15.92 KHz
C 45000 44100 1 90 0 voltage-1.sym
{
T 44500 44200 5 10 0 0 90 0 1
device=VOLTAGE_SOURCE
T 44500 44600 5 10 1 1 180 0 1
refdes=Vin
}
T 44800 40400 9 10 1 0 0 0 1
filter-lp-1.sch
T 45400 40100 9 10 1 0 0 0 1
1
T 46300 40100 9 10 1 0 0 0 1
1
T 48700 40100 9 10 1 0 0 0 1
Mike Waters
