v 20130925 2
C 40000 40000 0 0 0 title-A4.sym
C 47600 46050 1 270 0 resistor-2.sym
{
T 47900 45700 5 10 1 1 0 0 1
refdes=Ro
T 47900 45350 5 10 1 1 0 0 1
value=50K
}
N 47700 46300 47700 46050 4
N 45700 46300 45500 46300 4
C 44100 44500 1 0 0 gnd-1.sym
C 42200 46100 1 270 0 voltage-2.sym
{
T 42800 45700 5 10 1 1 0 0 1
refdes=Vin
T 43200 45600 5 10 1 1 180 0 1
value=AC 1V
}
N 42400 44800 47700 44800 4
T 45950 40850 9 16 1 0 0 0 1
Resonant Band Pass Filter
T 49400 40450 9 10 1 0 0 4 1
2015 - 04 - 14
C 45500 44800 1 90 0 capacitor-1.sym
{
T 44975 45375 5 10 1 1 0 0 1
refdes=C2
T 45250 45125 5 10 1 1 180 0 1
value=47p
}
C 43500 46400 1 180 0 resistor-2.sym
{
T 42950 46450 5 10 1 1 0 0 1
refdes=Rs
T 42950 46000 5 10 1 1 0 0 1
value=50
}
N 42400 46300 42600 46300 4
C 46600 46200 1 0 0 inductor-1.sym
{
T 46800 46700 5 10 0 0 0 0 1
device=INDUCTOR
T 46950 46450 5 10 1 1 0 0 1
refdes=L3
T 46800 46900 5 10 0 0 0 0 1
symversion=0.1
T 46850 46050 5 10 1 1 0 0 1
value=100n
}
C 46000 44800 1 90 0 inductor-1.sym
{
T 45500 45000 5 10 0 0 90 0 1
device=INDUCTOR
T 46300 45450 5 10 1 1 180 0 1
refdes=L2
T 45300 45000 5 10 0 0 90 0 1
symversion=0.1
T 46500 45200 5 10 1 1 180 0 1
value=100n
}
C 46600 46500 1 180 0 capacitor-1.sym
{
T 46075 46525 5 10 1 1 180 0 1
refdes=C3
T 46300 46075 5 10 1 1 0 0 1
value=47p
}
C 44600 46200 1 0 0 inductor-1.sym
{
T 44800 46700 5 10 0 0 0 0 1
device=INDUCTOR
T 44950 46450 5 10 1 1 0 0 1
refdes=L1
T 44800 46900 5 10 0 0 0 0 1
symversion=0.1
T 44850 46050 5 10 1 1 0 0 1
value=100n
}
C 44600 46500 1 180 0 capacitor-1.sym
{
T 44075 46525 5 10 1 1 180 0 1
refdes=C1
T 44250 46075 5 10 1 1 0 0 1
value=47p
}
N 43500 46300 43700 46300 4
N 47700 46300 47500 46300 4
N 47700 45150 47700 44800 4
N 42400 45200 42400 44800 4
N 42400 46300 42400 46100 4
N 45600 46300 45600 45700 4
N 45900 45700 45300 45700 4
T 48700 40100 9 10 1 0 0 0 1
Mike Waters
T 45300 40100 9 10 1 0 0 0 1
1
T 46300 40100 9 10 1 0 0 0 1
1
T 44800 40400 9 10 1 0 0 0 1
filter-bp-2.sch
