v 20130925 2
C 40000 40000 0 0 0 title-A4.sym
C 46600 44250 1 0 0 jj-1.sym
{
T 46700 44750 5 10 0 0 0 0 1
device=JOSEPHSON_JUNCTION
T 47100 44800 5 10 1 1 0 0 1
refdes=B1
T 47000 44650 5 10 0 1 0 0 1
model-name=?
T 47100 44550 5 10 1 0 0 0 1
area=30u
}
C 45300 45050 1 0 0 resistor-2.sym
{
T 45700 45400 5 10 0 0 0 0 1
device=RESISTOR
T 45650 45300 5 10 1 1 0 0 1
refdes=R1
T 45600 44850 5 10 1 1 0 0 1
value=100
}
C 45000 44250 1 90 0 voltage-2.sym
{
T 44450 44350 5 10 0 0 90 0 1
device=VOLTAGE_SOURCE
T 44500 44750 5 10 1 1 180 0 1
refdes=V1
T 44200 44300 5 10 1 1 0 0 1
value=DC 1V
}
C 45600 43950 1 0 0 gnd-1.sym
T 46000 40900 9 14 1 0 0 0 1
Superconductor Junction
N 44800 45150 45300 45150 4
N 46200 45150 46800 45150 4
N 44800 44250 46800 44250 4
T 44700 40400 9 10 1 0 0 0 1
superconductor-jn.sch
T 45400 40100 9 10 1 0 0 0 1
1
T 46300 40100 9 10 1 0 0 0 1
1
T 48700 40400 9 10 1 0 0 0 1
2015 - 04 - 10
T 48700 40100 9 10 1 0 0 0 1
Mike Waters
